@startuml

title Web-UI Google Login

boundary LoginPage
boundary GoogleLoginPage
boundary HomePage
participant SpringFramework
participant SecurityFilter
participant GoogleIdP
participant AuthenticationProvider
participant UserDetailsService
participant UserService
participant UserRepository
database DB

autonumber
LoginPage -> SpringFramework: HttpRequest (POST)
SpringFramework -> SecurityFilter:HttpRequest (POST)
SecurityFilter -> GoogleLoginPage: redirect with token request
GoogleLoginPage -> GoogleIdP: login
GoogleIdP --> SecurityFilter: access token
SecurityFilter -> AuthenticationProvider: authenticate()
AuthenticationProvider -> UserDetailsService: getUserDetails()
UserDetailsService -> UserService: addUser()
UserService -> UserRepository: addUser()
UserRepository -> DB: query()
UserDetailsService --> AuthenticationProvider: userDetails
AuthenticationProvider --> SpringFramework: Authentication OK
SpringFramework --> HomePage: HTML output

@enduml